…
``` r
library(datateachr)
vancouver_trees <- vancouver_trees %>%
  mutate(age = as.numeric(difftime(Sys.Date(), date_planted, units = "days")))
```

## Example 1:

``` r
# Used the generic function to grab information around trees in different neighbourhoods including the average age of trees, the maximal age of trees and the minimal age of trees
vancouver_trees_summary_by_neighbourhood <- summarize_col_by_group(vancouver_trees, group_col = "neighbourhood_name", summary_col = "age")
vancouver_trees_summary_by_neighbourhood
```

    ## # A tibble: 22 × 4
    ##    neighbourhood_name       average max_value min_value
    ##    <chr>                      <dbl>     <dbl>     <dbl>
    ##  1 ARBUTUS-RIDGE              7256.     12419      1670
    ##  2 DOWNTOWN                   6705.     12397      1639
    ##  3 DUNBAR-SOUTHLANDS          6924.     12416      1649
    ##  4 FAIRVIEW                   7166.     12349      1643
    ##  5 GRANDVIEW-WOODLAND         7075.     12394      1601
    ##  6 HASTINGS-SUNRISE           7711.     12354      1646
    ##  7 KENSINGTON-CEDAR COTTAGE   7519.     12388      1650
    ##  8 KERRISDALE                 6823.     12408      1649
    ##  9 KILLARNEY                  7210.     12416      1611
    ## 10 KITSILANO                  6790.     12320      1639
    ## # ℹ 12 more rows

## Example 2:

``` r
# Used the generic function to grab information around trees grouped by different species including the average age of trees, the maximal age of trees and the minimal age of trees
vancouver_trees_summary_by_species <- summarize_col_by_group(vancouver_trees, group_col = "species_name", summary_col = "age")
vancouver_trees_summary_by_species
```

    ## # A tibble: 222 × 4
    ##    species_name   average max_value min_value
    ##    <chr>            <dbl>     <dbl>     <dbl>
    ##  1 ABIES            6496.      7634      3262
    ##  2 ACERIFOLIA   X   8256.     12019      2435
    ##  3 ACUMINATA        7780.      8243      7537
    ##  4 ACUTISSIMA       9777.     11940      6237
    ##  5 ALBA             5214.     10091      1737
    ##  6 ALBA-SINENSIS    8953.      8954      8950
    ##  7 ALNIFOLIA        8883.     12025      2731
    ##  8 AMERICANA        7528.     12327      1678
    ##  9 ANAGYROIDES      8583       8583      8583
    ## 10 ANTARTICA        8630.     10590      4603
    ## # ℹ 212 more rows
…
